{
  "tasks": [
    {
      "id": "1",
      "text": "Doctors Appointment",
      "day": "March 5th at 2:30pm",
      "reminder": true
    },
    {
      "id": "2",
      "text": "Meeting with boss",
      "day": "March 6th at 1:30pm",
      "reminder": true
    },
    {
      "id": 47645,
      "text": "Dentist Appt.",
      "day": "March 2nd at 2:PM",
      "reminder": false
    },
    {
      "text": "Learn Vue.js",
      "day": "Every Day at 10PM",
      "reminder": true,
      "id": 47646
    }
  ]
}